Fitting parametric survival models in R • flexsurvPlus
…
boot_summ <- boot_gathered %>%
  group_by(parameter) %>%
  summarise(across(.cols = where(is.numeric),
                   list(
                     mean = ~mean(., na.rm = TRUE),
                     sd = ~sd(., na.rm = TRUE),
                     median = ~median(., na.rm = TRUE),
                     min = ~min(., na.rm = TRUE),
                     max = ~max(., na.rm = TRUE)
                   )
                   )) %>%
  mutate(across(.cols = where(is.numeric), ~round(., 3)), .keep = 'unused')
#> `summarise()` ungrouping output (override with `.groups` argument)
boot_summ
#> # A tibble: 70 x 6
#>    parameter        value_mean value_sd value_median value_min value_max
#>    <chr>                 <dbl>    <dbl>        <dbl>     <dbl>     <dbl>
#>  1 exp.rate.A.OS        -4.74     0.076        -4.74    -4.94     -4.55 
#>  2 exp.rate.A.PFS       -4.58     0.06         -4.59    -4.71     -4.41 
#>  3 exp.rate.B.OS        -5.87     0.076        -5.86    -6.05     -5.68 
#>  4 exp.rate.B.PFS       -5.27     0.071        -5.26    -5.44     -5.13 
#>  5 exp.rate.TE.OS        1.13     0.101         1.13     0.874     1.37 
#>  6 exp.rate.TE.PFS       0.692    0.087         0.69     0.491     0.885
#>  7 gamma.rate.A.OS      -4.75     0.108        -4.74    -4.96     -4.50 
#>  8 gamma.rate.A.PFS     -5.32     0.068        -5.32    -5.53     -5.18 
#>  9 gamma.rate.B.OS      -5.88     0.13         -5.87    -6.21     -5.58 
#> 10 gamma.rate.B.PFS     -6.44     0.152        -6.42    -6.77     -6.10 
#> # … with 60 more rows
…
